testbench.vcd
$date
  Wed Oct 15 20:28:14 2014
$end
$version
  GHDL v0
$end
$timescale
  1 fs
$end
$var reg 3 ! signal0[2:0] $end
$var reg 3 " signal1[2:0] $end
$var reg 1 # signal2 $end
$var reg 1 $ signal3 $end
$var reg 6 % signal4[5:0] $end
$var reg 1 & clk $end
$var reg 1 ' reset $end
$scope module uut $end
$var reg 3 ( in0[2:0] $end
$var reg 3 ) in1[2:0] $end
$var reg 1 * in100 $end
$var reg 1 + in101 $end
$var reg 6 , out0[5:0] $end
$var reg 1 - signal_0 $end
$var reg 1 . signal_1 $end
$var reg 1 / signal_2 $end
$var reg 1 0 signal_3 $end
$var reg 1 1 signal_4 $end
$var reg 1 2 signal_5 $end
$var reg 1 3 signal_6 $end
$var reg 1 4 signal_7 $end
$var reg 1 5 signal_8 $end
$var reg 1 6 signal_9 $end
$var reg 1 7 signal_10 $end
$var reg 1 8 signal_11 $end
$var reg 1 9 signal_12 $end
$var reg 1 : signal_13 $end
$var reg 1 ; signal_14 $end
$var reg 1 < signal_15 $end
$var reg 1 = signal_16 $end
$var reg 1 > signal_17 $end
$var reg 1 ? signal_18 $end
$var reg 1 @ signal_19 $end
$var reg 1 A signal_20 $end
$var reg 1 B signal_21 $end
$var reg 1 C signal_22 $end
$var reg 1 D signal_23 $end
$var reg 1 E signal_24 $end
$var reg 1 F signal_25 $end
$var reg 1 G signal_26 $end
$var reg 1 H signal_27 $end
$var reg 1 I signal_28 $end
$var reg 1 J signal_29 $end
$var reg 1 K signal_30 $end
$var reg 1 L signal_31 $end
$var reg 1 M signal_32 $end
$var reg 1 N signal_33 $end
$var reg 1 O signal_34 $end
$var reg 1 P signal_35 $end
$var reg 1 Q signal_36 $end
$var reg 1 R signal_37 $end
$var reg 1 S signal_38 $end
$var reg 1 T signal_39 $end
$var reg 1 U signal_40 $end
$var reg 1 V signal_41 $end
$var reg 1 W signal_42 $end
$var reg 1 X signal_43 $end
$var reg 1 Y signal_44 $end
$var reg 1 Z signal_45 $end
$var reg 1 [ signal_46 $end
$var reg 1 \ gnd $end
$scope module label_0_0_0 $end
$var reg 1 ] x $end
$var reg 1 ^ y $end
$var reg 1 _ andout $end
$upscope $end
$scope module label_0_0_1 $end
$var reg 1 ` x $end
$var reg 1 a y $end
$var reg 1 b andout $end
$upscope $end
$scope module label_0_0_2 $end
$var reg 1 c x $end
$var reg 1 d y $end
$var reg 1 e andout $end
$upscope $end
$scope module label_0_1_0 $end
$var reg 1 f x $end
$var reg 1 g y $end
$var reg 1 h andout $end
$upscope $end
$scope module label_0_1_1 $end
$var reg 1 i x $end
$var reg 1 j y $end
$var reg 1 k andout $end
$upscope $end
$scope module label_0_1_2 $end
$var reg 1 l x $end
$var reg 1 m y $end
$var reg 1 n andout $end
$upscope $end
$scope module label_0_2_0 $end
$var reg 1 o x $end
$var reg 1 p y $end
$var reg 1 q andout $end
$upscope $end
$scope module label_0_2_1 $end
$var reg 1 r x $end
$var reg 1 s y $end
$var reg 1 t andout $end
$upscope $end
$scope module label_0_2_2 $end
$var reg 1 u x $end
$var reg 1 v y $end
$var reg 1 w andout $end
$upscope $end
$scope module label_1_0_1 $end
$var reg 1 x d $end
$var reg 1 y clk $end
$var reg 1 z rst $end
$var reg 1 { q $end
$upscope $end
$scope module label_1_1_1 $end
$var reg 1 | d $end
$var reg 1 } clk $end
$var reg 1 !" rst $end
$var reg 1 "" q $end
$upscope $end
$scope module label_2_0_1 $end
$var reg 1 #" d $end
$var reg 1 $" clk $end
$var reg 1 %" rst $end
$var reg 1 &" q $end
$upscope $end
$scope module label_2_1_1 $end
$var reg 1 '" x $end
$var reg 1 (" y $end
$var reg 1 )" clk $end
$var reg 1 *" rst $end
$var reg 1 +" sum $end
$var reg 1 ," cout $end
$upscope $end
$scope module label_2_2_1 $end
$var reg 1 -" x $end
$var reg 1 ." y $end
$var reg 1 /" cin $end
$var reg 1 0" clk $end
$var reg 1 1" rst $end
$var reg 1 2" sum $end
$var reg 1 3" cout $end
$upscope $end
$scope module label_2_3_1 $end
$var reg 1 4" d $end
$var reg 1 5" clk $end
$var reg 1 6" rst $end
$var reg 1 7" q $end
$upscope $end
$scope module label_2_3_2 $end
$var reg 1 8" d $end
$var reg 1 9" clk $end
$var reg 1 :" rst $end
$var reg 1 ;" q $end
$upscope $end
$scope module label_2_4_1 $end
$var reg 1 <" d $end
$var reg 1 =" clk $end
$var reg 1 >" rst $end
$var reg 1 ?" q $end
$upscope $end
$scope module label_3_0_1 $end
$var reg 1 @" d $end
$var reg 1 A" clk $end
$var reg 1 B" rst $end
$var reg 1 C" q $end
$upscope $end
$scope module label_3_1_1 $end
$var reg 1 D" d $end
$var reg 1 E" clk $end
$var reg 1 F" rst $end
$var reg 1 G" q $end
$upscope $end
$scope module label_3_2_1 $end
$var reg 1 H" x $end
$var reg 1 I" y $end
$var reg 1 J" clk $end
$var reg 1 K" rst $end
$var reg 1 L" sum $end
$var reg 1 M" cout $end
$upscope $end
$scope module label_3_3_1 $end
$var reg 1 N" x $end
$var reg 1 O" y $end
$var reg 1 P" cin $end
$var reg 1 Q" clk $end
$var reg 1 R" rst $end
$var reg 1 S" sum $end
$var reg 1 T" cout $end
$upscope $end
$scope module label_3_4_1 $end
$var reg 1 U" d $end
$var reg 1 V" clk $end
$var reg 1 W" rst $end
$var reg 1 X" q $end
$upscope $end
$scope module label_4_0_1 $end
$var reg 1 Y" d $end
$var reg 1 Z" clk $end
$var reg 1 [" rst $end
$var reg 1 \" q $end
$upscope $end
$scope module label_4_1_1 $end
$var reg 1 ]" d $end
$var reg 1 ^" clk $end
$var reg 1 _" rst $end
$var reg 1 `" q $end
$upscope $end
$scope module label_4_2_1 $end
$var reg 1 a" d $end
$var reg 1 b" clk $end
$var reg 1 c" rst $end
$var reg 1 d" q $end
$upscope $end
$scope module label_4_3_1 $end
$var reg 1 e" x $end
$var reg 1 f" y $end
$var reg 1 g" clk $end
$var reg 1 h" rst $end
$var reg 1 i" sum $end
$var reg 1 j" cout $end
$upscope $end
$scope module label_4_4_1 $end
$var reg 1 k" d $end
$var reg 1 l" clk $end
$var reg 1 m" rst $end
$var reg 1 n" q $end
$upscope $end
$scope module label_4_4_2 $end
$var reg 1 o" d $end
$var reg 1 p" clk $end
$var reg 1 q" rst $end
$var reg 1 r" q $end
$upscope $end
$scope module label_5_0_1 $end
$var reg 1 s" d $end
$var reg 1 t" clk $end
$var reg 1 u" rst $end
$var reg 1 v" q $end
$upscope $end
$scope module label_5_1_1 $end
$var reg 1 w" d $end
$var reg 1 x" clk $end
$var reg 1 y" rst $end
$var reg 1 z" q $end
$upscope $end
$scope module label_5_2_1 $end
$var reg 1 {" d $end
$var reg 1 |" clk $end
$var reg 1 }" rst $end
$var reg 1 !# q $end
$upscope $end
$scope module label_5_3_1 $end
$var reg 1 "# d $end
$var reg 1 ## clk $end
$var reg 1 $# rst $end
$var reg 1 %# q $end
$upscope $end
$scope module label_5_4_1 $end
$var reg 1 &# x $end
$var reg 1 '# y $end
$var reg 1 (# cin $end
$var reg 1 )# clk $end
$var reg 1 *# rst $end
$var reg 1 +# sum $end
$var reg 1 ,# cout $end
$upscope $end
$upscope $end
$enddefinitions $end
#0
bUUU !
bUUU "
0#
0$
bUUUUUU %
0&
0'
bUUU (
bUUU )
0*
0+
bUUUUUU ,
U-
U.
U/
U0
U1
U2
U3
U4
U5
U6
U7
U8
U9
0:
0;
U<
U=
U>
U?
U@
UA
UB
UC
UD
UE
UF
UG
UH
UI
UJ
UK
UL
UM
UN
UO
UP
UQ
UR
US
UT
UU
UV
UW
UX
UY
UZ
U[
0\
U]
U^
U_
U`
Ua
Ub
Uc
Ud
Ue
Uf
Ug
Uh
Ui
Uj
Uk
Ul
Um
Un
Uo
Up
Uq
Ur
Us
Ut
Uu
Uv
Uw
Ux
0y
0z
U{
U|
0}
0!"
U""
U#"
0$"
0%"
U&"
U'"
U("
0)"
0*"
U+"
U,"
U-"
U."
U/"
00"
01"
U2"
U3"
U4"
05"
06"
U7"
U8"
09"
0:"
U;"
U<"
0="
0>"
U?"
U@"
0A"
0B"
UC"
UD"
0E"
0F"
UG"
UH"
UI"
0J"
0K"
UL"
UM"
UN"
UO"
UP"
0Q"
0R"
US"
UT"
UU"
0V"
0W"
UX"
UY"
0Z"
0["
U\"
U]"
0^"
0_"
U`"
Ua"
0b"
0c"
Ud"
Ue"
Uf"
0g"
0h"
Ui"
Uj"
Uk"
0l"
0m"
Un"
Uo"
0p"
0q"
Ur"
Us"
0t"
0u"
Uv"
Uw"
0x"
0y"
Uz"
U{"
0|"
0}"
U!#
U"#
0##
0$#
U%#
U&#
U'#
U(#
0)#
0*#
U+#
U,#
#500000
1#
1&
1*
1:
1y
1}
1$"
1)"
10"
15"
19"
1="
1A"
1E"
1J"
1Q"
1V"
1Z"
1^"
1b"
1g"
1l"
1p"
1t"
1x"
1|"
1##
1)#
#1000000
0#
0&
0*
0:
0y
0}
0$"
0)"
00"
05"
09"
0="
0A"
0E"
0J"
0Q"
0V"
0Z"
0^"
0b"
0g"
0l"
0p"
0t"
0x"
0|"
0##
0)#
#1500000
1#
1&
1*
1:
1y
1}
1$"
1)"
10"
15"
19"
1="
1A"
1E"
1J"
1Q"
1V"
1Z"
1^"
1b"
1g"
1l"
1p"
1t"
1x"
1|"
1##
1)#
#2000000
0#
0&
0*
0:
0y
0}
0$"
0)"
00"
05"
09"
0="
0A"
0E"
0J"
0Q"
0V"
0Z"
0^"
0b"
0g"
0l"
0p"
0t"
0x"
0|"
0##
0)#
#2500000
1#
1&
1*
1:
1y
1}
1$"
1)"
10"
15"
19"
1="
1A"
1E"
1J"
1Q"
1V"
1Z"
1^"
1b"
1g"
1l"
1p"
1t"
1x"
1|"
1##
1)#
#3000000
0#
0&
0*
0:
0y
0}
0$"
0)"
00"
05"
09"
0="
0A"
0E"
0J"
0Q"
0V"
0Z"
0^"
0b"
0g"
0l"
0p"
0t"
0x"
0|"
0##
0)#
#3500000
1#
1&
1*
1:
1y
1}
1$"
1)"
10"
15"
19"
1="
1A"
1E"
1J"
1Q"
1V"
1Z"
1^"
1b"
1g"
1l"
1p"
1t"
1x"
1|"
1##
1)#
#4000000
0#
0&
0*
0:
0y
0}
0$"
0)"
00"
05"
09"
0="
0A"
0E"
0J"
0Q"
0V"
0Z"
0^"
0b"
0g"
0l"
0p"
0t"
0x"
0|"
0##
0)#
#4500000
1#
1&
1*
1:
1y
1}
1$"
1)"
10"
15"
19"
1="
1A"
1E"
1J"
1Q"
1V"
1Z"
1^"
1b"
1g"
1l"
1p"
1t"
1x"
1|"
1##
1)#
#5000000
0#
0&
0*
0:
0y
0}
0$"
0)"
00"
05"
09"
0="
0A"
0E"
0J"
0Q"
0V"
0Z"
0^"
0b"
0g"
0l"
0p"
0t"
0x"
0|"
0##
0)#
#5500000
1#
1&
1*
1:
1y
1}
1$"
1)"
10"
15"
19"
1="
1A"
1E"
1J"
1Q"
1V"
1Z"
1^"
1b"
1g"
1l"
1p"
1t"
1x"
1|"
1##
1)#
#6000000
0#
0&
0*
0:
0y
0}
0$"
0)"
00"
05"
09"
0="
0A"
0E"
0J"
0Q"
0V"
0Z"
0^"
0b"
0g"
0l"
0p"
0t"
0x"
0|"
0##
0)#
#6500000
b100 !
b110 "
1#
1&
b100 (
b110 )
1*
03
04
15
16
07
18
09
1:
0<
0=
0>
0?
0@
0A
0B
0C
1D
1E
0H
0I
0J
0K
1L
1M
0]
0^
0_
0`
1a
0b
0c
1d
0e
0f
0g
0h
0i
1j
0k
0l
1m
0n
1o
0p
0q
1r
1s
1t
1u
1v
1w
0x
1y
0{
0|
1}
0""
0#"
1$"
0'"
0("
1)"
0,"
0-"
0."
0/"
10"
02"
03"
04"
15"
07"
18"
19"
1;"
1<"
1="
1?"
1A"
1E"
0H"
0I"
1J"
0N"
0O"
1P"
1Q"
1U"
1V"
1Z"
1^"
1b"
1g"
1l"
1p"
1t"
1x"
1|"
1##
1)#
#7000000
0#
0&
0*
0:
0y
0}
0$"
0)"
00"
05"
09"
0="
0A"
0E"
0J"
0Q"
0V"
0Z"
0^"
0b"
0g"
0l"
0p"
0t"
0x"
0|"
0##
0)#
#7500000
1#
1&
1*
1:
0F
0G
0P
0Q
1R
0S
1T
1y
1}
1$"
0&"
1)"
0+"
10"
15"
19"
1="
0@"
1A"
0D"
1E"
1J"
0L"
0M"
1Q"
1S"
0T"
1V"
1X"
1Z"
1^"
0a"
1b"
0e"
1f"
1g"
0k"
1l"
1o"
1p"
1t"
1x"
1|"
1##
1)#
#8000000
0#
0&
0*
0:
0y
0}
0$"
0)"
00"
05"
09"
0="
0A"
0E"
0J"
0Q"
0V"
0Z"
0^"
0b"
0g"
0l"
0p"
0t"
0x"
0|"
0##
0)#
#8500000
1#
1&
1*
1:
0N
0O
0W
1X
0Y
0Z
1[
1y
1}
1$"
1)"
10"
15"
19"
1="
1A"
0C"
1E"
0G"
1J"
1Q"
1V"
0Y"
1Z"
0]"
1^"
1b"
0d"
1g"
1i"
0j"
1l"
0n"
1p"
1r"
1t"
1x"
0{"
1|"
1"#
1##
0&#
0'#
1(#
1)#
#9000000
0#
0&
0*
0:
0y
0}
0$"
0)"
00"
05"
09"
0="
0A"
0E"
0J"
0Q"
0V"
0Z"
0^"
0b"
0g"
0l"
0p"
0t"
0x"
0|"
0##
0)#
#9500000
1#
b0110UU %
1&
1*
b0110UU ,
0/
10
11
02
1:
0U
0V
1y
1}
1$"
1)"
10"
15"
19"
1="
1A"
1E"
1J"
1Q"
1V"
1Z"
0\"
1^"
0`"
1b"
1g"
1l"
1p"
0s"
1t"
0w"
1x"
1|"
0!#
1##
1%#
1)#
1+#
0,#
#10000000
0#
0&
0*
0:
0y
0}
0$"
0)"
00"
05"
09"
0="
0A"
0E"
0J"
0Q"
0V"
0Z"
0^"
0b"
0g"
0l"
0p"
0t"
0x"
0|"
0##
0)#
#10500000
1#
b011000 %
1&
1*
b011000 ,
0-
0.
1:
1y
1}
1$"
1)"
10"
15"
19"
1="
1A"
1E"
1J"
1Q"
1V"
1Z"
1^"
1b"
1g"
1l"
1p"
1t"
0v"
1x"
0z"
1|"
1##
1)#
#11000000
0#
0&
0*
0:
0y
0}
0$"
0)"
00"
05"
09"
0="
0A"
0E"
0J"
0Q"
0V"
0Z"
0^"
0b"
0g"
0l"
0p"
0t"
0x"
0|"
0##
0)#
#11500000
1#
1&
1*
1:
1y
1}
1$"
1)"
10"
15"
19"
1="
1A"
1E"
1J"
1Q"
1V"
1Z"
1^"
1b"
1g"
1l"
1p"
1t"
1x"
1|"
1##
1)#
#12000000
0#
0&
0*
0:
0y
0}
0$"
0)"
00"
05"
09"
0="
0A"
0E"
0J"
0Q"
0V"
0Z"
0^"
0b"
0g"
0l"
0p"
0t"
0x"
0|"
0##
0)#
#12500000
1#
1&
1*
1:
1y
1}
1$"
1)"
10"
15"
19"
1="
1A"
1E"
1J"
1Q"
1V"
1Z"
1^"
1b"
1g"
1l"
1p"
1t"
1x"
1|"
1##
1)#
#13000000
0#
0&
0*
0:
0y
0}
0$"
0)"
00"
05"
09"
0="
0A"
0E"
0J"
0Q"
0V"
0Z"
0^"
0b"
0g"
0l"
0p"
0t"
0x"
0|"
0##
0)#
#13500000
1#
1&
1*
1:
1y
1}
1$"
1)"
10"
15"
19"
1="
1A"
1E"
1J"
1Q"
1V"
1Z"
1^"
1b"
1g"
1l"
1p"
1t"
1x"
1|"
1##
1)#
#14000000
0#
0&
0*
0:
0y
0}
0$"
0)"
00"
05"
09"
0="
0A"
0E"
0J"
0Q"
0V"
0Z"
0^"
0b"
0g"
0l"
0p"
0t"
0x"
0|"
0##
0)#
#14500000
1#
1&
1*
1:
1y
1}
1$"
1)"
10"
15"
19"
1="
1A"
1E"
1J"
1Q"
1V"
1Z"
1^"
1b"
1g"
1l"
1p"
1t"
1x"
1|"
1##
1)#
#15000000
0#
0&
0*
0:
0y
0}
0$"
0)"
00"
05"
09"
0="
0A"
0E"
0J"
0Q"
0V"
0Z"
0^"
0b"
0g"
0l"
0p"
0t"
0x"
0|"
0##
0)#
#15500000
1#
1&
1*
1:
1y
1}
1$"
1)"
10"
15"
19"
1="
1A"
1E"
1J"
1Q"
1V"
1Z"
1^"
1b"
1g"
1l"
1p"
1t"
1x"
1|"
1##
1)#
#16000000
0#
0&
0*
0:
0y
0}
0$"
0)"
00"
05"
09"
0="
0A"
0E"
0J"
0Q"
0V"
0Z"
0^"
0b"
0g"
0l"
0p"
0t"
0x"
0|"
0##
0)#
#16500000
1#
1&
1*
1:
1y
1}
1$"
1)"
10"
15"
19"
1="
1A"
1E"
1J"
1Q"
1V"
1Z"
1^"
1b"
1g"
1l"
1p"
1t"
1x"
1|"
1##
1)#
#17000000
0#
0&
0*
0:
0y
0}
0$"
0)"
00"
05"
09"
0="
0A"
0E"
0J"
0Q"
0V"
0Z"
0^"
0b"
0g"
0l"
0p"
0t"
0x"
0|"
0##
0)#
#17500000
1#
1&
1*
1:
1y
1}
1$"
1)"
10"
15"
19"
1="
1A"
1E"
1J"
1Q"
1V"
1Z"
1^"
1b"
1g"
1l"
1p"
1t"
1x"
1|"
1##
1)#
#18000000
0#
0&
0*
0:
0y
0}
0$"
0)"
00"
05"
09"
0="
0A"
0E"
0J"
0Q"
0V"
0Z"
0^"
0b"
0g"
0l"
0p"
0t"
0x"
0|"
0##
0)#
#18500000
b000 !
b001 "
1#
1&
b000 (
b001 )
1*
14
05
06
08
1:
0D
0E
0L
0M
1^
0a
0d
1g
0j
0m
0o
1p
0r
0s
0t
0u
0v
0w
1y
1}
1$"
1)"
10"
15"
08"
19"
0;"
0<"
1="
0?"
1A"
1E"
1J"
0P"
1Q"
0U"
1V"
1Z"
1^"
1b"
1g"
1l"
1p"
1t"
1x"
1|"
1##
1)#
#19000000
0#
0&
0*
0:
0y
0}
0$"
0)"
00"
05"
09"
0="
0A"
0E"
0J"
0Q"
0V"
0Z"
0^"
0b"
0g"
0l"
0p"
0t"
0x"
0|"
0##
0)#
#19500000
1#
1&
1*
1:
0R
0T
1y
1}
1$"
1)"
10"
15"
19"
1="
1A"
1E"
1J"
1Q"
0S"
1V"
0X"
1Z"
1^"
1b"
0f"
1g"
1l"
0o"
1p"
1t"
1x"
1|"
1##
1)#
#20000000
0#
0&
0*
0:
0y
0}
0$"
0)"
00"
05"
09"
0="
0A"
0E"
0J"
0Q"
0V"
0Z"
0^"
0b"
0g"
0l"
0p"
0t"
0x"
0|"
0##
0)#
#20500000
1#
1&
1*
1:
0X
0[
1y
1}
1$"
1)"
10"
15"
19"
1="
1A"
1E"
1J"
1Q"
1V"
1Z"
1^"
1b"
1g"
0i"
1l"
1p"
0r"
1t"
1x"
1|"
0"#
1##
0(#
1)#
#21000000
0#
0&
0*
0:
0y
0}
0$"
0)"
00"
05"
09"
0="
0A"
0E"
0J"
0Q"
0V"
0Z"
0^"
0b"
0g"
0l"
0p"
0t"
0x"
0|"
0##
0)#
#21500000
1#
b000000 %
1&
1*
b000000 ,
00
01
1:
1y
1}
1$"
1)"
10"
15"
19"
1="
1A"
1E"
1J"
1Q"
1V"
1Z"
1^"
1b"
1g"
1l"
1p"
1t"
1x"
1|"
1##
0%#
1)#
0+#
#22000000
0#
0&
0*
0:
0y
0}
0$"
0)"
00"
05"
09"
0="
0A"
0E"
0J"
0Q"
0V"
0Z"
0^"
0b"
0g"
0l"
0p"
0t"
0x"
0|"
0##
0)#
#22500000
1#
1&
1*
1:
1y
1}
1$"
1)"
10"
15"
19"
1="
1A"
1E"
1J"
1Q"
1V"
1Z"
1^"
1b"
1g"
1l"
1p"
1t"
1x"
1|"
1##
1)#
#23000000
0#
0&
0*
0:
0y
0}
0$"
0)"
00"
05"
09"
0="
0A"
0E"
0J"
0Q"
0V"
0Z"
0^"
0b"
0g"
0l"
0p"
0t"
0x"
0|"
0##
0)#
#23500000
1#
1&
1*
1:
1y
1}
1$"
1)"
10"
15"
19"
1="
1A"
1E"
1J"
1Q"
1V"
1Z"
1^"
1b"
1g"
1l"
1p"
1t"
1x"
1|"
1##
1)#
#24000000
0#
0&
0*
0:
0y
0}
0$"
0)"
00"
05"
09"
0="
0A"
0E"
0J"
0Q"
0V"
0Z"
0^"
0b"
0g"
0l"
0p"
0t"
0x"
0|"
0##
0)#
#24500000
1#
1&
1*
1:
1y
1}
1$"
1)"
10"
15"
19"
1="
1A"
1E"
1J"
1Q"
1V"
1Z"
1^"
1b"
1g"
1l"
1p"
1t"
1x"
1|"
1##
1)#
#25000000
0#
0&
0*
0:
0y
0}
0$"
0)"
00"
05"
09"
0="
0A"
0E"
0J"
0Q"
0V"
0Z"
0^"
0b"
0g"
0l"
0p"
0t"
0x"
0|"
0##
0)#
#25500000
1#
1&
1*
1:
1y
1}
1$"
1)"
10"
15"
19"
1="
1A"
1E"
1J"
1Q"
1V"
1Z"
1^"
1b"
1g"
1l"
1p"
1t"
1x"
1|"
1##
1)#
#26000000
0#
0&
0*
0:
0y
0}
0$"
0)"
00"
05"
09"
0="
0A"
0E"
0J"
0Q"
0V"
0Z"
0^"
0b"
0g"
0l"
0p"
0t"
0x"
0|"
0##
0)#
#26500000
1#
1&
1*
1:
1y
1}
1$"
1)"
10"
15"
19"
1="
1A"
1E"
1J"
1Q"
1V"
1Z"
1^"
1b"
1g"
1l"
1p"
1t"
1x"
1|"
1##
1)#
#27000000
0#
0&
0*
0:
0y
0}
0$"
0)"
00"
05"
09"
0="
0A"
0E"
0J"
0Q"
0V"
0Z"
0^"
0b"
0g"
0l"
0p"
0t"
0x"
0|"
0##
0)#
#27500000
1#
1&
1*
1:
1y
1}
1$"
1)"
10"
15"
19"
1="
1A"
1E"
1J"
1Q"
1V"
1Z"
1^"
1b"
1g"
1l"
1p"
1t"
1x"
1|"
1##
1)#
#28000000
0#
0&
0*
0:
0y
0}
0$"
0)"
00"
05"
09"
0="
0A"
0E"
0J"
0Q"
0V"
0Z"
0^"
0b"
0g"
0l"
0p"
0t"
0x"
0|"
0##
0)#
#28500000
1#
1&
1*
1:
1y
1}
1$"
1)"
10"
15"
19"
1="
1A"
1E"
1J"
1Q"
1V"
1Z"
1^"
1b"
1g"
1l"
1p"
1t"
1x"
1|"
1##
1)#
#29000000
0#
0&
0*
0:
0y
0}
0$"
0)"
00"
05"
09"
0="
0A"
0E"
0J"
0Q"
0V"
0Z"
0^"
0b"
0g"
0l"
0p"
0t"
0x"
0|"
0##
0)#
#29500000
1#
1&
1*
1:
1y
1}
1$"
1)"
10"
15"
19"
1="
1A"
1E"
1J"
1Q"
1V"
1Z"
1^"
1b"
1g"
1l"
1p"
1t"
1x"
1|"
1##
1)#
#30000000
0#
0&
0*
0:
0y
0}
0$"
0)"
00"
05"
09"
0="
0A"
0E"
0J"
0Q"
0V"
0Z"
0^"
0b"
0g"
0l"
0p"
0t"
0x"
0|"
0##
0)#
#30500000
b001 !
b011 "
1#
1&
b001 (
b011 )
1*
13
15
19
1:
1<
1=
1>
1]
1_
1`
1a
1b
1c
1j
1s
1x
1y
1{
1|
1}
1""
1#"
1$"
1'"
1)"
10"
15"
19"
1="
1A"
1E"
1J"
1Q"
1V"
1Z"
1^"
1b"
1g"
1l"
1p"
1t"
1x"
1|"
1##
1)#
#31000000
0#
0&
0*
0:
0y
0}
0$"
0)"
00"
05"
09"
0="
0A"
0E"
0J"
0Q"
0V"
0Z"
0^"
0b"
0g"
0l"
0p"
0t"
0x"
0|"
0##
0)#
#31500000
1#
1&
1*
1:
1F
1G
1y
1}
1$"
1&"
1)"
1+"
10"
15"
19"
1="
1@"
1A"
1D"
1E"
1J"
1Q"
1V"
1Z"
1^"
1b"
1g"
1l"
1p"
1t"
1x"
1|"
1##
1)#
#32000000
0#
0&
0*
0:
0y
0}
0$"
0)"
00"
05"
09"
0="
0A"
0E"
0J"
0Q"
0V"
0Z"
0^"
0b"
0g"
0l"
0p"
0t"
0x"
0|"
0##
0)#
#32500000
1#
1&
1*
1:
1N
1O
1y
1}
1$"
1)"
10"
15"
19"
1="
1A"
1C"
1E"
1G"
1J"
1Q"
1V"
1Y"
1Z"
1]"
1^"
1b"
1g"
1l"
1p"
1t"
1x"
1|"
1##
1)#
#33000000
0#
0&
0*
0:
0y
0}
0$"
0)"
00"
05"
09"
0="
0A"
0E"
0J"
0Q"
0V"
0Z"
0^"
0b"
0g"
0l"
0p"
0t"
0x"
0|"
0##
0)#
#33500000
1#
1&
1*
1:
1U
1V
1y
1}
1$"
1)"
10"
15"
19"
1="
1A"
1E"
1J"
1Q"
1V"
1Z"
1\"
1^"
1`"
1b"
1g"
1l"
1p"
1s"
1t"
1w"
1x"
1|"
1##
1)#
#34000000
0#
0&
0*
0:
0y
0}
0$"
0)"
00"
05"
09"
0="
0A"
0E"
0J"
0Q"
0V"
0Z"
0^"
0b"
0g"
0l"
0p"
0t"
0x"
0|"
0##
0)#
#34500000
1#
b000011 %
1&
1*
b000011 ,
1-
1.
1:
1y
1}
1$"
1)"
10"
15"
19"
1="
1A"
1E"
1J"
1Q"
1V"
1Z"
1^"
1b"
1g"
1l"
1p"
1t"
1v"
1x"
1z"
1|"
1##
1)#
#35000000
0#
0&
0*
0:
0y
0}
0$"
0)"
00"
05"
09"
0="
0A"
0E"
0J"
0Q"
0V"
0Z"
0^"
0b"
0g"
0l"
0p"
0t"
0x"
0|"
0##
0)#
#35500000
1#
1&
1*
1:
1y
1}
1$"
1)"
10"
15"
19"
1="
1A"
1E"
1J"
1Q"
1V"
1Z"
1^"
1b"
1g"
1l"
1p"
1t"
1x"
1|"
1##
1)#
#36000000
0#
0&
0*
0:
0y
0}
0$"
0)"
00"
05"
09"
0="
0A"
0E"
0J"
0Q"
0V"
0Z"
0^"
0b"
0g"
0l"
0p"
0t"
0x"
0|"
0##
0)#
#36500000
1#
1&
1*
1:
1y
1}
1$"
1)"
10"
15"
19"
1="
1A"
1E"
1J"
1Q"
1V"
1Z"
1^"
1b"
1g"
1l"
1p"
1t"
1x"
1|"
1##
1)#
#37000000
0#
0&
0*
0:
0y
0}
0$"
0)"
00"
05"
09"
0="
0A"
0E"
0J"
0Q"
0V"
0Z"
0^"
0b"
0g"
0l"
0p"
0t"
0x"
0|"
0##
0)#
#37500000
1#
1&
1*
1:
1y
1}
1$"
1)"
10"
15"
19"
1="
1A"
1E"
1J"
1Q"
1V"
1Z"
1^"
1b"
1g"
1l"
1p"
1t"
1x"
1|"
1##
1)#
#38000000
0#
0&
0*
0:
0y
0}
0$"
0)"
00"
05"
09"
0="
0A"
0E"
0J"
0Q"
0V"
0Z"
0^"
0b"
0g"
0l"
0p"
0t"
0x"
0|"
0##
0)#
#38500000
1#
1&
1*
1:
1y
1}
1$"
1)"
10"
15"
19"
1="
1A"
1E"
1J"
1Q"
1V"
1Z"
1^"
1b"
1g"
1l"
1p"
1t"
1x"
1|"
1##
1)#
#39000000
0#
0&
0*
0:
0y
0}
0$"
0)"
00"
05"
09"
0="
0A"
0E"
0J"
0Q"
0V"
0Z"
0^"
0b"
0g"
0l"
0p"
0t"
0x"
0|"
0##
0)#
#39500000
1#
1&
1*
1:
1y
1}
1$"
1)"
10"
15"
19"
1="
1A"
1E"
1J"
1Q"
1V"
1Z"
1^"
1b"
1g"
1l"
1p"
1t"
1x"
1|"
1##
1)#
#40000000
0#
0&
0*
0:
0y
0}
0$"
0)"
00"
05"
09"
0="
0A"
0E"
0J"
0Q"
0V"
0Z"
0^"
0b"
0g"
0l"
0p"
0t"
0x"
0|"
0##
0)#
#40500000
1#
1&
1*
1:
1y
1}
1$"
1)"
10"
15"
19"
1="
1A"
1E"
1J"
1Q"
1V"
1Z"
1^"
1b"
1g"
1l"
1p"
1t"
1x"
1|"
1##
1)#
#41000000
0#
0&
0*
0:
0y
0}
0$"
0)"
00"
05"
09"
0="
0A"
0E"
0J"
0Q"
0V"
0Z"
0^"
0b"
0g"
0l"
0p"
0t"
0x"
0|"
0##
0)#
#41500000
1#
1&
1*
1:
1y
1}
1$"
1)"
10"
15"
19"
1="
1A"
1E"
1J"
1Q"
1V"
1Z"
1^"
1b"
1g"
1l"
1p"
1t"
1x"
1|"
1##
1)#
#42000000
0#
0&
0*
0:
0y
0}
0$"
0)"
00"
05"
09"
0="
0A"
0E"
0J"
0Q"
0V"
0Z"
0^"
0b"
0g"
0l"
0p"
0t"
0x"
0|"
0##
0)#
#42500000
b000 !
b100 "
1#
1&
b000 (
b100 )
1*
03
04
05
16
09
1:
0<
0=
0>
0]
0^
0_
0`
0a
0b
0c
1d
0g
0j
1m
0p
0s
1v
0x
1y
0{
0|
1}
0""
0#"
1$"
0'"
1)"
10"
15"
19"
1="
1A"
1E"
1J"
1Q"
1V"
1Z"
1^"
1b"
1g"
1l"
1p"
1t"
1x"
1|"
1##
1)#
#43000000
0#
0&
0*
0:
0y
0}
0$"
0)"
00"
05"
09"
0="
0A"
0E"
0J"
0Q"
0V"
0Z"
0^"
0b"
0g"
0l"
0p"
0t"
0x"
0|"
0##
0)#
#43500000
1#
1&
1*
1:
0F
0G
1y
1}
1$"
0&"
1)"
0+"
10"
15"
19"
1="
0@"
1A"
0D"
1E"
1J"
1Q"
1V"
1Z"
1^"
1b"
1g"
1l"
1p"
1t"
1x"
1|"
1##
1)#
#44000000
0#
0&
0*
0:
0y
0}
0$"
0)"
00"
05"
09"
0="
0A"
0E"
0J"
0Q"
0V"
0Z"
0^"
0b"
0g"
0l"
0p"
0t"
0x"
0|"
0##
0)#
#44500000
1#
1&
1*
1:
0N
0O
1y
1}
1$"
1)"
10"
15"
19"
1="
1A"
0C"
1E"
0G"
1J"
1Q"
1V"
0Y"
1Z"
0]"
1^"
1b"
1g"
1l"
1p"
1t"
1x"
1|"
1##
1)#
